{
    "KPlugin": {
        "Authors": [
            {
                "Email": "heena393@gmail.com",
                "Name": "Heena",
                "Name[ar]": "Heena",
                "Name[az]": "Heena",
                "Name[bg]": "Heena",
                "Name[ca@valencia]": "Heena",
                "Name[ca]": "Heena",
                "Name[da]": "Heena",
                "Name[de]": "Heena",
                "Name[en_GB]": "Heena",
                "Name[es]": "Heena",
                "Name[eu]": "Heena",
                "Name[fi]": "Heena",
                "Name[fr]": "Heena",
                "Name[hu]": "Heena",
                "Name[ia]": "Heena",
                "Name[id]": "Heena",
                "Name[is]": "Heena",
                "Name[it]": "Heena",
                "Name[ja]": "Heena",
                "Name[ka]": "ჰეენა",
                "Name[ko]": "Heena",
                "Name[lt]": "Heena",
                "Name[nl]": "Heena",
                "Name[nn]": "Heena",
                "Name[pl]": "Heena",
                "Name[pt]": "Heena",
                "Name[pt_BR]": "Heena",
                "Name[ro]": "Heena",
                "Name[ru]": "Heena",
                "Name[sk]": "Heena",
                "Name[sl]": "Heena",
                "Name[sv]": "Heena",
                "Name[ta]": "ஹீனா",
                "Name[tr]": "Heena",
                "Name[uk]": "Heena",
                "Name[vi]": "Heena",
                "Name[x-test]": "xxHeenaxx",
                "Name[zh_CN]": "Heena"
            }
        ],
        "BugReportUrl": "https://bugs.kde.org/enter_bug.cgi?product=plasmashell&component=Trash",
        "Category": "File System",
        "Description": "Provides access to the files sent to trash",
        "Description[ar]": "يعطي إمكانية الوصول إلى الملفات التي في سلة المهملات",
        "Description[az]": "Səbət atılan fayllara girişi təmin edir",
        "Description[bg]": "Осигурява достъп до файловете, изпратени в кошчето",
        "Description[ca@valencia]": "Proporciona accés als fitxers enviats a la paperera",
        "Description[ca]": "Proporciona accés als fitxers enviats a la paperera",
        "Description[cs]": "Poskytuje přístup k souborům odeslaným do koše",
        "Description[da]": "Giver adgang til filer der er lagt i papirkurv",
        "Description[de]": "Ermöglicht den Zugriff auf Dateien im Papierkorb",
        "Description[en_GB]": "Provides access to the files sent to the wastebin",
        "Description[es]": "Proporciona acceso a los archivos enviados a la papelera",
        "Description[eu]": "Zakarrontzira bidalitako fitxategietara iristeko bidea ematen du",
        "Description[fi]": "Tarjoaa pääsyn roskakoriin lähetettyihin tiedostoihin",
        "Description[fr]": "Fournit un accès aux fichiers mis à la corbeille",
        "Description[hu]": "Hozzáférést biztosít a kukába helyezett fájlokhoz",
        "Description[ia]": "Forni acceso al files inviate al corbe",
        "Description[id]": "Menyediakan akses ke file yang dikirim ke tong sampah",
        "Description[is]": "Gefur aðgang að skrám sem sendar eru í ruslið",
        "Description[it]": "Fornisce l'accesso ai file cestinati",
        "Description[ja]": "ごみ箱のファイルへのアクセスを提供します",
        "Description[ka]": "გაძლებთ წვდომას ნაგავში ჩაყრილ ფაილებზე",
        "Description[ko]": "휴지통에 버린 파일 접근 제공",
        "Description[lt]": "Pateikia prieigą prie šiukšlinėje esančių failų",
        "Description[nl]": "Biedt toegang tot de bestanden verzonden naar de prullenbak",
        "Description[nn]": "Få tilgang til filer lagde i papirkorga",
        "Description[pa]": "ਰੱਦੀ ਵਿੱਚ ਭੇਜੀਆਂ ਫਾਇਲਾਂ ਤੱਕ ਪਹੁੰਚ ਦਿੰਦਾ ਹੈ",
        "Description[pl]": "Zapewnia dostęp do plików w koszu",
        "Description[pt]": "Oferece o acesso aos ficheiros enviados para o lixo",
        "Description[pt_BR]": "Fornece acesso aos arquivos enviados para a lixeira",
        "Description[ro]": "Oferă acces la fișierele trimise la gunoi",
        "Description[ru]": "Доступ в файлам, удалённым в корзину",
        "Description[sk]": "Poskytuje prístup k súborom poslaným do koša",
        "Description[sl]": "Ponuja dostop do datotek poslanih v Smeti",
        "Description[sv]": "Tillhandahåller åtkomst av filerna skickade till papperskorgen",
        "Description[ta]": "அகற்றிடத்துக்கு அனுப்பிய கோப்புகளை அணுக உதவும்",
        "Description[tr]": "Çöp kutusuna gönderilen dosyalara erişim sağlar",
        "Description[uk]": "Надає доступ до файлів, які було надіслано до Смітника",
        "Description[vi]": "Cho phép truy cập các tệp đã bị đưa vào thùng rác",
        "Description[x-test]": "xxProvides access to the files sent to trashxx",
        "Description[zh_CN]": "访问回收站中的文件",
        "EnabledByDefault": true,
        "Icon": "user-trash",
        "Id": "org.kde.plasma.trash",
        "License": "GPL-2.0+",
        "Name": "Trashcan",
        "Name[af]": "Gemors ",
        "Name[ar]": "سلّة المهملات",
        "Name[ast]": "Papelera",
        "Name[az]": "Səbət",
        "Name[be@latin]": "Śmietnica",
        "Name[bg]": "Кошче",
        "Name[bn]": "আবর্জনা",
        "Name[bs]": "Korpa za smeće",
        "Name[ca@valencia]": "Paperera",
        "Name[ca]": "Paperera",
        "Name[cs]": "Koš",
        "Name[csb]": "Kòsz",
        "Name[da]": "Papirkurv",
        "Name[de]": "Papierkorb",
        "Name[el]": "Κάδος απορριμμάτων",
        "Name[en_GB]": "Wastebin",
        "Name[eo]": "Rubujo",
        "Name[es]": "Papelera",
        "Name[et]": "Prügikast",
        "Name[eu]": "Zakarrontzia",
        "Name[fi]": "Roskakori",
        "Name[fr]": "Corbeille",
        "Name[fy]": "Jiskefet",
        "Name[ga]": "Bruscar",
        "Name[gl]": "Lixo",
        "Name[gu]": "કચરાપેટી",
        "Name[he]": "פח אשפה",
        "Name[hi]": "कूड़ेदान",
        "Name[hne]": "घुरुवा",
        "Name[hr]": "Otpad",
        "Name[hsb]": "Papjernik",
        "Name[hu]": "Kuka",
        "Name[ia]": "Corbe",
        "Name[id]": "Tong Sampah",
        "Name[is]": "Ruslafata",
        "Name[it]": "Cestino",
        "Name[ja]": "ごみ箱",
        "Name[ka]": "სანაგვე",
        "Name[kk]": "Өшірілгендер",
        "Name[km]": "ធុង​សំរាម",
        "Name[kn]": "ಕಸಬುಟ್ಟಿ",
        "Name[ko]": "휴지통",
        "Name[ku]": "Qutiya Sergo",
        "Name[lt]": "Šiukšlinė",
        "Name[lv]": "Miskaste",
        "Name[mk]": "Корпа",
        "Name[ml]": "ചവറ്റുകുട്ട",
        "Name[mr]": "कचरापेटी",
        "Name[nb]": "Søppelbøtte",
        "Name[nds]": "Affalltünn",
        "Name[nl]": "Prullenbak",
        "Name[nn]": "Papirkorg",
        "Name[or]": "Trashcan",
        "Name[pa]": "ਰੱਦੀ-ਟੋਕਰੀ",
        "Name[pl]": "Kosz",
        "Name[pt]": "Caixote do Lixo",
        "Name[pt_BR]": "Lixeira",
        "Name[ro]": "Coș de gunoi",
        "Name[ru]": "Корзина",
        "Name[si]": "ඉවතලන බඳුන",
        "Name[sk]": "Odpadkový kôš",
        "Name[sl]": "Smetnjak",
        "Name[sr@ijekavian]": "корпа за смеће",
        "Name[sr@ijekavianlatin]": "korpa za smeće",
        "Name[sr@latin]": "korpa za smeće",
        "Name[sr]": "корпа за смеће",
        "Name[sv]": "Papperskorg",
        "Name[ta]": "அகற்றிடம்",
        "Name[te]": "చెత్తబుట్ట",
        "Name[tg]": "Сабад",
        "Name[th]": "ถังขยะ",
        "Name[tr]": "Çöp Kutusu",
        "Name[ug]": "ئەخلەتخانا",
        "Name[uk]": "Смітник",
        "Name[uz@cyrillic]": "Чиқиндилар қутиси",
        "Name[uz]": "Chiqindilar qutisi",
        "Name[vi]": "Thùng rác",
        "Name[wa]": "Batch ås mannestés",
        "Name[x-test]": "xxTrashcanxx",
        "Name[zh_CN]": "回收站",
        "Name[zh_TW]": "垃圾桶",
        "ServiceTypes": [
            "Plasma/Applet"
        ],
        "Version": "1.0",
        "Website": "https://www.kde.org/plasma-desktop"
    },
    "X-Plasma-API": "declarativeappletscript",
    "X-Plasma-DropUrlPatterns": [
        "trash:/"
    ],
    "X-Plasma-MainScript": "ui/main.qml",
    "X-Plasma-Provides": [
        "org.kde.plasma.trash"
    ]
}
